{
    "key": "group_614b3edbd6c7f",
    "title": "[Options] State",
    "fields": [
        {
            "key": "field_614b3ef46c97e",
            "label": "State Links",
            "name": "state_links",
            "type": "repeater",
            "instructions": "Note: Include the states here",
            "required": 0,
            "conditional_logic": 0,
            "wrapper": {
                "width": "",
                "class": "",
                "id": ""
            },
            "collapsed": "",
            "min": 0,
            "max": 0,
            "layout": "table",
            "button_label": "Add State",
            "sub_fields": [
                {
                    "key": "field_614b3f7d6c97f",
                    "label": "State Page",
                    "name": "state_page",
                    "type": "link",
                    "instructions": "",
                    "required": 0,
                    "conditional_logic": 0,
                    "wrapper": {
                        "width": "",
                        "class": "",
                        "id": ""
                    },
                    "return_format": "array"
                }
            ]
        }
    ],
    "location": [
        [
            {
                "param": "options_page",
                "operator": "==",
                "value": "acf-options-state-links"
            }
        ]
    ],
    "menu_order": 0,
    "position": "normal",
    "style": "default",
    "label_placement": "top",
    "instruction_placement": "label",
    "hide_on_screen": "",
    "active": true,
    "description": "",
    "modified": 1632321440
}